h 000.082.464-08 98756-1188
c 98756-1188
d 98756-1188
c 98756-1188
r rbcons46.38
h 000.084.665-13 72900-6504
c 72900-6504
p 72900-6504 686.000000 459.000000
d 72900-6504
c 72900-6504
h 000.084.665-13 92598-5539
c 92598-5539
d 92598-5539
c 92598-5539
h 000.052.460-32 95415-2740
c 95415-2740
d 95415-2740
c 95415-2740
h 000.083.308-83 88930-7854
c 88930-7854
p 88930-7854 1066.000000 238.000000
d 88930-7854
c 88930-7854
r rbcons19.34
h 000.029.010-64 73028-1541
c 73028-1541
r rbcons23.29
h 000.052.460-32 78625-3151
c 78625-3151
h 000.083.308-83 78606-4883
c 78606-4883
h 000.054.733-65 83734-3824
c 83734-3824
h 000.031.480-33 97678-4138
c 97678-4138
d 97678-4138
c 97678-4138
r rbcons19.39
r rbcons14.24
r rbcons4.4
r rbcons49.1
h 000.084.665-13 75307-0725
c 75307-0725
d 75307-0725
c 75307-0725
h 000.076.801-47 93678-4095
c 93678-4095
d 78606-4883
c 78606-4883
h 000.063.484-08 85499-6114
c 85499-6114
r rbcons26.10
d 93678-4095
c 93678-4095
d 73028-1541
c 73028-1541
h 000.077.585-10 76353-8259
c 76353-8259
p 85499-6114 1065.000000 195.000000
r rbcons58.37
d 76353-8259
c 76353-8259
d 85499-6114
c 85499-6114
r rbcons15.49
d 78625-3151
c 78625-3151
r rbcons60.43
h 000.000.754-42 78171-8552
c 78171-8552
h 000.076.289-00 72866-9870
c 72866-9870
h 000.038.407-00 88330-3937
c 88330-3937
r rbcons41.53
r rbcons43.9
h 000.082.464-08 94629-5306
c 94629-5306
d 78171-8552
c 78171-8552
r rbcons25.8
h 000.063.484-08 71916-1529
c 71916-1529
d 83734-3824
c 83734-3824
h 000.063.484-08 98366-5421
c 98366-5421
h 000.095.674-02 82417-8117
c 82417-8117
r rbcons14.20
d 71916-1529
c 71916-1529
d 88330-3937
c 88330-3937
h 000.088.966-07 81933-9603
c 81933-9603
d 72866-9870
c 72866-9870
h 000.083.308-83 78123-2541
c 78123-2541
p 98366-5421 1285.000000 679.000000
p 82417-8117 32.000000 509.000000
p 78123-2541 1576.000000 738.000000
d 81933-9603
c 81933-9603
d 98366-5421
c 98366-5421
h 000.067.764-77 86274-5758
c 86274-5758
h 000.064.886-84 80327-9977
c 80327-9977
r rbcons59.11
d 94629-5306
c 94629-5306
h 000.036.637-44 75888-3675
c 75888-3675
d 78123-2541
c 78123-2541
r rbcons28.2
d 86274-5758
c 86274-5758
r rbcons40.22
h 000.052.460-32 84156-1904
c 84156-1904
h 000.052.460-32 90372-3776
c 90372-3776
r rbcons7.3
r rbcons29.53
h 000.095.674-02 74761-7433
c 74761-7433
h 000.038.407-00 86899-0765
c 86899-0765
d 86899-0765
c 86899-0765
h 000.064.886-84 88267-9092
c 88267-9092
h 000.083.308-83 94138-4068
c 94138-4068
d 94138-4068
c 94138-4068
h 000.048.253-65 99199-9661
c 99199-9661
h 000.031.480-33 92437-6500
c 92437-6500
h 000.036.637-44 75281-2639
c 75281-2639
d 84156-1904
c 84156-1904
d 74761-7433
c 74761-7433
h 000.064.886-84 85167-3155
c 85167-3155
